lshin_hw2_markdown
…
The number of US births reported by the government in 2000 is about 300,000 greater than that reported by the SSA. I dont think these values should be equal. According to the description of babynames, only names with at least 5 uses were reported. Thus, if an uncommon name was given to a baby, it was not included in this data set, so the total number of births should be lower than the total number reported by the government.

4

babynames %>% 
   group_by(name) %>% 
   summarize(total = sum(n)) %>% 
   filter(total>=1000) %>% 
   mutate(numChar = str_length(name)) %>% 
   arrange(-numChar)

## `summarise()` ungrouping output (override with `.groups` argument)

## # A tibble: 10,570 x 3
##    name          total numChar
##    <chr>         <int>   <int>
##  1 Maryelizabeth  1969      13
##  2 Michaelangelo  1236      13
##  3 Konstantinos   1770      12
##  4 Marcoantonio   1467      12
##  5 Abdulrahman    2121      11
##  6 Alejandrina    1281      11
##  7 Alexzandria    1665      11
##  8 Bartholomew    4004      11
##  9 Charlesetta    1303      11
## 10 Chirstopher    1051      11
## #  with 10,560 more rows
…
